<svg width="16" height="16" viewBox="0 0 16 16" fill="none" xmlns="http://www.w3.org/2000/svg">
<rect width="16" height="16" fill="#0281B7"/>
<rect x="6.76923" y="2.46153" width="2.46154" height="11.0769" fill="white"/>
<rect x="2.46155" y="6.76923" width="11.0769" height="2.46154" fill="white"/>
</svg>
